{
  "portfolio": [
    {
      "title": "UGA Extension",
      "description": "A complete redesign of the University of Georgia's public-facing Extension program.",
      "image": "./images/heros/extension-hero.jpg",
      "url": "./pages/extension.html"
    },
    {
      "title": "Shelf",
      "description": "A comic book collection management app.",
      "image": "./images/heros/shelf-hero.jpg",
      "url": "./pages/shelf.html"
    },
    {
      "title": "Knifemaking Lexicon",
      "description": "A beautiful introduction to knifemaking with Bloodroot Blades",
      "image": "./images/heros/bloodroot-hero.jpg",
      "url": "./pages/bloodroot.html"
    },
    {
      "title": "CAES",
      "description": "Complete redesign for the College of Agricultural & Environmental Sciences at UGA",
      "image": "./images/heros/caes-hero.jpeg",
      "url": "./pages/caes.html"
    },
    {
      "title": "Oak House",
      "description": "UI / Branding Concepts for a kickass band.",
      "image": "./images/heros/oak-house-hero.jpg",
      "url": "./pages/oak-house.html"
    },
    {
      "title": "CAES/Extension Subsites",
      "description": "As a continuation of both the Extension and CAES redesigns, I was taked with designing supplemental templates for both.",
      "image": "./images/heros/subsite-hero.jpg",
      "url": "./pages/subsite.html"
    },
    {
      "title": "Quote",
      "description": "A minimal experiment in typography and animation",
      "image": "./images/heros/quote-hero.jpg",
      "url": "./pages/quote.html"
    }
  ]
}
